function getCustomerWithEmail()
{
    email_id= document.getElementById("customer_email").value;
    // console.log(email_id)
    $.ajax({
        url:baseURL+filePath,
        method:'POST',
        data:{
            getCustomerWithEmail: true,
            emailID: email_id
        },
        dataType: 'json',
        success:function(customer)
        {   
            console.log(customer);
            // $("#selling_price_"+element_id).empty();
            // $("#selling_price_"+element_id).val(product[0].selling_rate);
           
        }
    });
    if(email_id =='')
    {
        console.log('hii')
    }
}

<!-- Routing tab use karneka jab POST request maarni ho yaa AJAX call karna ho -->